…
``` r
show(dtTidyAvg)
```

    Source: local data frame [14,760 x 11]
    Groups: subjectID, activityName, domain, signal_type, sensor, statistic, jerk, magnitude [6,120]

       subjectID activityName    domain signal_type        sensor statistic
          <fctr>       <fctr>    <fctr>      <fctr>        <fctr>    <fctr>
    1          1       laying frequency        body accelerometer      mean
    2          1       laying frequency        body accelerometer      mean
    3          1       laying frequency        body accelerometer      mean
    4          1       laying frequency        body accelerometer      mean
    5          1       laying frequency        body accelerometer      mean
    6          1       laying frequency        body accelerometer      mean
    7          1       laying frequency        body accelerometer      mean
    8          1       laying frequency        body accelerometer      mean
    9          1       laying frequency        body accelerometer      mean
    10         1       laying frequency        body accelerometer      mean
    # ... with 14,750 more rows, and 5 more variables: jerk <fctr>,
    #   magnitude <fctr>, axis <fctr>, obs <int>, average <dbl>
…
